\relax 
\providecommand\hyper@newdestlabel[2]{}
\FN@pp@footnotehinttrue 
\@writefile{toc}{\contentsline {chapter}{\numberline {5}Testing}{9}{chapter.5}\protected@file@percent }
\@writefile{lof}{\addvspace {10\p@ }}
\@writefile{lot}{\addvspace {10\p@ }}
\@writefile{toc}{\contentsline {section}{\numberline {5.1}Test workflow}{9}{section.5.1}\protected@file@percent }
\@writefile{toc}{\contentsline {subsection}{\numberline {5.1.1}Name of the test1}{9}{subsection.5.1.1}\protected@file@percent }
\@writefile{toc}{\contentsline {subsection}{\numberline {5.1.2}Name of the test2}{9}{subsection.5.1.2}\protected@file@percent }
\@writefile{toc}{\contentsline {section}{\numberline {5.2}Test case details}{9}{section.5.2}\protected@file@percent }
\@writefile{toc}{\contentsline {subsection}{\numberline {5.2.1}Test case id:}{9}{subsection.5.2.1}\protected@file@percent }
\@writefile{toc}{\contentsline {subsection}{\numberline {5.2.2}Test case id:}{10}{subsection.5.2.2}\protected@file@percent }
\FN@pp@footnotehinttrue 
\@setckpt{Testing/testing}{
\setcounter{page}{11}
\setcounter{equation}{0}
\setcounter{enumi}{5}
\setcounter{enumii}{0}
\setcounter{enumiii}{0}
\setcounter{enumiv}{0}
\setcounter{footnote}{0}
\setcounter{mpfootnote}{0}
\setcounter{part}{0}
\setcounter{chapter}{5}
\setcounter{section}{2}
\setcounter{subsection}{2}
\setcounter{subsubsection}{0}
\setcounter{paragraph}{0}
\setcounter{subparagraph}{0}
\setcounter{figure}{0}
\setcounter{table}{0}
\setcounter{pp@next@reset}{1}
\setcounter{@fnserial}{0}
\setcounter{NAT@ctr}{0}
\setcounter{Item}{5}
\setcounter{Hfootnote}{0}
\setcounter{bookmark@seq@number}{41}
\setcounter{parentequation}{0}
\setcounter{r@tfl@t}{0}
\setcounter{float@type}{8}
\setcounter{algorithm}{0}
\setcounter{ALC@unique}{0}
\setcounter{ALC@line}{0}
\setcounter{ALC@rem}{0}
\setcounter{ALC@depth}{0}
\setcounter{AM@survey}{0}
\setcounter{section@level}{2}
}
