\relax 
\providecommand\hyper@newdestlabel[2]{}
\@setckpt{Acknowledgement/acknowledgement}{
\setcounter{page}{3}
\setcounter{equation}{0}
\setcounter{enumi}{0}
\setcounter{enumii}{0}
\setcounter{enumiii}{0}
\setcounter{enumiv}{0}
\setcounter{footnote}{0}
\setcounter{mpfootnote}{0}
\setcounter{part}{0}
\setcounter{chapter}{0}
\setcounter{section}{0}
\setcounter{subsection}{0}
\setcounter{subsubsection}{0}
\setcounter{paragraph}{0}
\setcounter{subparagraph}{0}
\setcounter{figure}{0}
\setcounter{table}{0}
\setcounter{pp@next@reset}{1}
\setcounter{@fnserial}{0}
\setcounter{NAT@ctr}{0}
\setcounter{Item}{0}
\setcounter{Hfootnote}{0}
\setcounter{bookmark@seq@number}{1}
\setcounter{parentequation}{0}
\setcounter{r@tfl@t}{0}
\setcounter{float@type}{8}
\setcounter{algorithm}{0}
\setcounter{ALC@unique}{0}
\setcounter{ALC@line}{0}
\setcounter{ALC@rem}{0}
\setcounter{ALC@depth}{0}
\setcounter{AM@survey}{0}
\setcounter{section@level}{0}
}
